PSYCH 490 • Fall 2023 - Visualizing data from (R. Silberzahn et al., 2018)
…
Figure 4: ?(caption)

So, there’s something odd going on with p_yellow. This should be in [0,1].

by_player |> dplyr::filter(p_yellow > 1)

# A tibble: 63 × 6
   playerShort   n_refs n_yellow n_red p_yellow  p_red
   <chr>          <int>    <dbl> <dbl>    <dbl>  <dbl>
 1 adam-bodzek       56       66     0     1.18 0     
 2 aduriz            63       68     4     1.08 0.0635
 3 albelda          147      197     6     1.34 0.0408
 4 alberto-botia     45       69     3     1.53 0.0667
 5 alexis            53       77     4     1.45 0.0755
 6 allan-nyom        37       42     0     1.14 0     
 7 amorebieta        85       93     4     1.09 0.0471
 8 apono             43       45     1     1.05 0.0233
 9 arribas_2         38       48     2     1.26 0.0526
10 ballesteros      110      128     5     1.16 0.0455
# ℹ 53 more rows
…
